{
    "swagger": "2.0",
    "info": {
        "title": "APIs for BCNCloud",
        "description": "This is the complete API set required for BCNCloud Mobile Version",
        "termsOfService": "",
        "contact": {
            "name": "Shashank Gaurav",
            "email": "shashank19gaurav@gmail.com"
        },
        "license": {
            "name": "Private License",
            "url": "URL to the license"
        },
        "version": "1.0.0"
    },
    "host": "localhost:8000",
    "basePath": "/api/v1",
    "schemes": [
        "http",
        "https"
    ],
    "paths": {
        "/payViaPaypal/": {
            "post": {
                "tags": [
                    "payments"
                ],
                "summary": "Allows current logged in user to pay via Paypal",
                "description": "Allows current logged in user to pay via Paypal",
                "operationId": "payViaPaypal",
                "produces": [
                    "application/json"
                ],
                "parameters": [
                    {
                        "name": "itemNumber",
                        "in": "body",
                        "description": "Provide the item number",
                        "required": true,
                        "type": "integer",
                        "maxLength": 256
                    },
                    {
                        "name": "itemPrice",
                        "in": "body",
                        "description": "Provide the item price",
                        "required": true,
                        "type": "string",
                        "maxLength": 256
                    },
                    {
                        "name": "itemDescription",
                        "in": "body",
                        "description": "Provide the item description",
                        "required": true,
                        "type": "string",
                        "maxLength": 256
                    },
                    {
                        "name": "itemName",
                        "in": "body",
                        "description": "Provide the item number",
                        "required": true,
                        "type": "string",
                        "maxLength": 256
                    }
                ],
                "responses": {
                    "200": {
                        "description": "Payment processed successfully"
                    },
                    "404": {
                        "description": "Could not process the the profile"
                    }
                },
                "security": [
                    {
                        "type": "apiKey",
                        "name": "Authorization",
                        "in": "header",
                        "description": "You have to provide token received while logging in the Authorization header Like Authorization : Bearer 'Your Access Token'"
                    }
                ]
            }
        },
        "/tracks/public?limit={limit}&page={page}": {
            "get": {
                "tags": [
                    "tracks"
                ],
                "summary": "Finds track based on public popularity",
                "description": "List the tracks based on the public popularity",
                "operationId": "indexPublicTrackList",
                "produces": [
                    "application/json"
                ],
                "parameters": [
                    {
                        "name": "limit",
                        "in": "path",
                        "description": "Provide this value to limit the results, this is optional in actual API Request",
                        "required": false,
                        "type": "integer",
                        "default": 10,
                        "maxLength": 256
                    },
                    {
                        "name": "page",
                        "in": "path",
                        "description": "Provide this value to get the results based on the page number",
                        "required": false,
                        "type": "integer",
                        "default": 1,
                        "maxLength": 256
                    }
                ],
                "responses": {
                    "200": {
                        "description": "List of the tracks based on the public popularity",
                        "schema": {
                            "type": "array",
                            "items": {
                                "$ref": "#/definitions/Track"
                            }
                        }
                    },
                    "404": {
                        "description": "Could not list the tracks"
                    }
                }
            }
        },
        "/tracks/vip?limit={limit}&page={page}": {
            "get": {
                "tags": [
                    "tracks"
                ],
                "summary": "Finds track based on VIP ratings",
                "description": "List the tracks based on the vip ratings",
                "operationId": "indexVipTrackList",
                "produces": [
                    "application/json"
                ],
                "parameters": [
                    {
                        "name": "limit",
                        "in": "path",
                        "description": "Provide this value to limit the results, this is optional in actual API Request",
                        "required": false,
                        "type": "integer",
                        "default": 10,
                        "maxLength": 256
                    },
                    {
                        "name": "page",
                        "in": "path",
                        "description": "Provide this value to get the results based on the page number",
                        "required": false,
                        "type": "integer",
                        "default": 1,
                        "maxLength": 256
                    }
                ],
                "responses": {
                    "200": {
                        "description": "List of the tracks based on the public popularity",
                        "schema": {
                            "type": "array",
                            "items": {
                                "$ref": "#/definitions/Track"
                            }
                        }
                    },
                    "404": {
                        "description": "Could not list the tracks"
                    }
                }
            }
        },
        "/tracks/upload": {
            "post": {
                "tags": [
                    "tracks"
                ],
                "summary": "Upload a track",
                "description": "Upload a track",
                "operationId": "upload",
                "produces": [
                    "application/json"
                ],
                "parameters": [
                    {
                        "name": "title",
                        "in": "body",
                        "description": "Provide the title of the track",
                        "required": true,
                        "type": "string",
                        "maxLength": 256
                    },
                    {
                        "name": "description",
                        "in": "body",
                        "description": "Provide the description about the track",
                        "required": false,
                        "type": "string",
                        "maxLength": 256
                    },
                    {
                        "name": "name",
                        "in": "body",
                        "description": "Provide the description about the track",
                        "required": true,
                        "type": "string",
                        "maxLength": 256
                    },
                    {
                        "name": "tag",
                        "in": "body",
                        "description": "Provide the tag for the track",
                        "required": true,
                        "type": "string",
                        "maxLength": 256
                    },
                    {
                        "name": "image",
                        "in": "body",
                        "description": "Provide the art for the track",
                        "required": false,
                        "type": "file",
                        "maxLength": 256
                    },
                    {
                        "name": "track",
                        "in": "body",
                        "description": "Provide the track",
                        "required": true,
                        "type": "file",
                        "maxLength": 256
                    },
                    {
                        "name": "buyLink",
                        "in": "body",
                        "description": "Provide the link to buy the track",
                        "required": false,
                        "type": "string",
                        "maxLength": 256
                    },
                    {
                        "name": "recordLabel",
                        "in": "body",
                        "description": "Provide the record label for the track",
                        "required": false,
                        "type": "string",
                        "maxLength": 256
                    },
                    {
                        "name": "license",
                        "in": "body",
                        "description": "Provide the license for the track",
                        "required": false,
                        "type": "integer",
                        "maxLength": 256
                    },
                    {
                        "name": "visibility",
                        "in": "body",
                        "description": "Provide the visibility for the track",
                        "required": false,
                        "type": "integer",
                        "maxLength": 256
                    },
                    {
                        "name": "embed",
                        "in": "body",
                        "description": "Provide the embed link for the track",
                        "required": false,
                        "type": "string",
                        "maxLength": 256
                    }
                ],
                "responses": {
                    "200": {
                        "description": "Track uploaded successfully",
                        "schema": {
                            "type": "array",
                            "items": {
                                "$ref": "#/definitions/Track"
                            }
                        }
                    },
                    "404": {
                        "description": "Could not upload the tracks"
                    }
                },
                "security": [
                    {
                        "type": "apiKey",
                        "name": "Authorization",
                        "in": "header",
                        "description": "You have to provide token received while logging in the Authorization header Like Authorization : Bearer 'Your Access Token'"
                    }
                ]
            }
        },
        "/tracks/like": {
            "post": {
                "tags": [
                    "tracks"
                ],
                "summary": "Like a track",
                "description": "Like a track",
                "operationId": "like",
                "produces": [
                    "application/json"
                ],
                "parameters": [
                    {
                        "name": "trackId",
                        "in": "body",
                        "description": "Provide the id of the track to like",
                        "required": true,
                        "type": "integer",
                        "maxLength": 256
                    }
                ],
                "responses": {
                    "200": {
                        "description": "Track liked successfully",
                        "schema": {
                            "type": "array",
                            "items": {
                                "$ref": "#/definitions/Like"
                            }
                        }
                    },
                    "404": {
                        "description": "Could not like the tracks"
                    },
                    "400": {
                        "description": "Track already liked by the user"
                    }
                },
                "security": [
                    {
                        "type": "apiKey",
                        "name": "Authorization",
                        "in": "header",
                        "description": "You have to provide token received while logging in the Authorization header Like Authorization : Bearer 'Your Access Token'"
                    }
                ]
            }
        },
        "/tracks/unlike": {
            "post": {
                "tags": [
                    "tracks"
                ],
                "summary": "UnLike a track",
                "description": "Unlike a track",
                "operationId": "unlike",
                "produces": [
                    "application/json"
                ],
                "parameters": [
                    {
                        "name": "trackId",
                        "in": "body",
                        "description": "Provide the id of the track to like",
                        "required": true,
                        "type": "integer",
                        "maxLength": 256
                    }
                ],
                "responses": {
                    "200": {
                        "description": "Track unliked successfully"
                    },
                    "404": {
                        "description": "Could not unlike the tracks"
                    },
                    "400": {
                        "description": "Track not liked by the user"
                    }
                },
                "security": [
                    {
                        "type": "apiKey",
                        "name": "Authorization",
                        "in": "header",
                        "description": "You have to provide token received while logging in the Authorization header Like Authorization : Bearer 'Your Access Token'"
                    }
                ]
            }
        },
        "/tracks/delete": {
            "post": {
                "tags": [
                    "tracks"
                ],
                "summary": "Delete a track",
                "description": "Delete a track",
                "operationId": "delete",
                "produces": [
                    "application/json"
                ],
                "parameters": [
                    {
                        "name": "trackId",
                        "in": "body",
                        "description": "Provide the id of the track to like",
                        "required": true,
                        "type": "integer",
                        "maxLength": 256
                    }
                ],
                "responses": {
                    "200": {
                        "description": "Track deleted successfully",
                        "schema": {
                            "type": "array",
                            "items": {
                                "message": "Tracked deleted successfully"
                            }
                        }
                    },
                    "404": {
                        "description": "Could not delete the tracks"
                    }
                },
                "security": [
                    {
                        "type": "apiKey",
                        "name": "Authorization",
                        "in": "header",
                        "description": "You have to provide token received while logging in the Authorization header Like Authorization : Bearer 'Your Access Token'"
                    }
                ]
            }
        },
        "/tracks/latest?limit={limit}&page={page}": {
            "get": {
                "tags": [
                    "tracks"
                ],
                "summary": "Finds recent tracks",
                "description": "Finds Recent tracks",
                "operationId": "indexPublicTrackList",
                "produces": [
                    "application/json"
                ],
                "parameters": [
                    {
                        "name": "limit",
                        "in": "path",
                        "description": "Provide this value to limit the results, this is optional in actual API Request",
                        "required": false,
                        "type": "integer",
                        "default": 10,
                        "maxLength": 256
                    },
                    {
                        "name": "page",
                        "in": "path",
                        "description": "Provide this value to get the results based on the page number",
                        "required": false,
                        "type": "integer",
                        "default": 1,
                        "maxLength": 256
                    }
                ],
                "responses": {
                    "200": {
                        "description": "List of recent tracks",
                        "schema": {
                            "type": "array",
                            "items": {
                                "$ref": "#/definitions/Track"
                            }
                        }
                    },
                    "404": {
                        "description": "Could not list the tracks"
                    }
                }
            }
        },
        "/tracks/popular?limit={limit}&page={page}": {
            "get": {
                "tags": [
                    "tracks"
                ],
                "summary": "Finds Popular tracks",
                "description": "Finds Popular tracks",
                "operationId": "popular",
                "produces": [
                    "application/json"
                ],
                "parameters": [
                    {
                        "name": "limit",
                        "in": "path",
                        "description": "Provide this value to limit the results, this is optional in actual API Request",
                        "required": false,
                        "type": "integer",
                        "default": 10,
                        "maxLength": 256
                    },
                    {
                        "name": "page",
                        "in": "path",
                        "description": "Provide this value to get the results based on the page number",
                        "required": false,
                        "type": "integer",
                        "default": 1,
                        "maxLength": 256
                    }
                ],
                "responses": {
                    "200": {
                        "description": "List of popular tracks",
                        "schema": {
                            "type": "array",
                            "items": {
                                "$ref": "#/definitions/Track"
                            }
                        }
                    },
                    "404": {
                        "description": "Could not list the tracks"
                    }
                }
            }
        },
        "/tracks/liked?limit={limit}&page={page}": {
            "get": {
                "tags": [
                    "tracks"
                ],
                "summary": "Finds Most Liked tracks",
                "description": "Finds Most Liked tracks",
                "operationId": "liked",
                "produces": [
                    "application/json"
                ],
                "parameters": [
                    {
                        "name": "limit",
                        "in": "path",
                        "description": "Provide this value to limit the results, this is optional in actual API Request",
                        "required": false,
                        "type": "integer",
                        "default": 10,
                        "maxLength": 256
                    },
                    {
                        "name": "page",
                        "in": "path",
                        "description": "Provide this value to get the results based on the page number",
                        "required": false,
                        "type": "integer",
                        "default": 1,
                        "maxLength": 256
                    }
                ],
                "responses": {
                    "200": {
                        "description": "List of most liked tracks",
                        "schema": {
                            "type": "array",
                            "items": {
                                "$ref": "#/definitions/Track"
                            }
                        }
                    },
                    "404": {
                        "description": "Could not list the tracks"
                    }
                }
            }
        },
        "/tracks?limit={limit}&page={page}": {
            "get": {
                "tags": [
                    "tracks"
                ],
                "summary": "Finds all tracks",
                "description": "Finds all tracks with support of filtering according to tags",
                "operationId": "liked",
                "produces": [
                    "application/json"
                ],
                "parameters": [
                    {
                        "name": "limit",
                        "in": "path",
                        "description": "Provide this value to limit the results, this is optional in actual API Request",
                        "required": false,
                        "type": "integer",
                        "default": 10,
                        "maxLength": 256
                    },
                    {
                        "name": "page",
                        "in": "path",
                        "description": "Provide this value to get the results based on the page number",
                        "required": false,
                        "type": "integer",
                        "default": 1,
                        "maxLength": 256
                    },
                    {
                        "name": "tag",
                        "in": "body",
                        "description": "Optional tag to filter the songs",
                        "required": false,
                        "type": "string",
                        "maxLength": 256
                    }
                ],
                "responses": {
                    "200": {
                        "description": "List of all the tracks based on the optional tag",
                        "schema": {
                            "type": "array",
                            "items": {
                                "$ref": "#/definitions/Track"
                            }
                        }
                    },
                    "404": {
                        "description": "Could not list the tracks"
                    }
                }
            }
        },
        "/tracks/stream?limit={limit}&page={page}": {
            "get": {
                "tags": [
                    "tracks"
                ],
                "summary": "Finds all tracks",
                "description": "Finds all tracks with support of filtering according to tags",
                "operationId": "liked",
                "produces": [
                    "application/json"
                ],
                "parameters": [
                    {
                        "name": "limit",
                        "in": "path",
                        "description": "Provide this value to limit the results, this is optional in actual API Request",
                        "required": false,
                        "type": "integer",
                        "default": 10,
                        "maxLength": 256
                    },
                    {
                        "name": "page",
                        "in": "path",
                        "description": "Provide this value to get the results based on the page number",
                        "required": false,
                        "type": "integer",
                        "default": 1,
                        "maxLength": 256
                    },
                    {
                        "name": "tag",
                        "in": "body",
                        "description": "Tag to filter the songs",
                        "required": false,
                        "type": "string",
                        "maxLength": 256
                    }
                ],
                "responses": {
                    "200": {
                        "description": "List of all the tracks based on the optional tag",
                        "schema": {
                            "type": "array",
                            "items": {
                                "$ref": "#/definitions/Track"
                            }
                        }
                    },
                    "404": {
                        "description": "Could not list the tracks"
                    },
                    "400": {
                        "description": "User not authenticated"
                    }
                },
                "security": [
                    {
                        "type": "apiKey",
                        "name": "Authorization",
                        "in": "header",
                        "description": "You have to provide token received while logging in the Authorization header Like Authorization : Bearer 'Your Access Token'"
                    }
                ]
            }
        },
        "/stats": {
            "get": {
                "tags": [
                    "Users"
                ],
                "summary": "Finds the statistics of the current logged in user",
                "description": "Finds the statistics of the current logged in user including most played, most liked, most commented, used space, noOfLikes, no of downloads, no of Likes etc ",
                "operationId": "stats",
                "produces": [
                    "application/json"
                ],
                "parameters": [],
                "responses": {
                    "200": {
                        "description": "Complete statistics of the current logged in user including most played, most liked, most commented, used space, noOfLikes, no of downloads, no of Likes etc ",
                        "schema": {
                            "type": "array",
                            "items": {
                                "$ref": "#/definitions/Track"
                            }
                        }
                    },
                    "404": {
                        "description": "Could not find the stats"
                    }
                },
                "security": [
                    {
                        "type": "apiKey",
                        "name": "Authorization",
                        "in": "header",
                        "description": "You have to provide token received while logging in the Authorization header Like Authorization : Bearer 'Your Access Token'"
                    }
                ]
            }
        },
        "/playedMost": {
            "get": {
                "tags": [
                    "Users"
                ],
                "summary": "Finds the user who played the most songs of the current logged in user",
                "description": "Finds the user who played the most songs of the current logged in user",
                "operationId": "playedMost",
                "produces": [
                    "application/json"
                ],
                "parameters": [],
                "responses": {
                    "200": {
                        "description": "Finds the user who played the most songs of the current logged in user",
                        "schema": {
                            "type": "array",
                            "items": {
                                "$ref": "#/definitions/User"
                            }
                        }
                    },
                    "404": {
                        "description": "Could not find the users"
                    }
                },
                "security": [
                    {
                        "type": "apiKey",
                        "name": "Authorization",
                        "in": "header",
                        "description": "You have to provide token received while logging in the Authorization header Like Authorization : Bearer 'Your Access Token'"
                    }
                ]
            }
        },
        "/downloadedMost/": {
            "get": {
                "tags": [
                    "Users"
                ],
                "summary": "Finds the user who downloaded the songs maximum times of the current logged in user",
                "description": "Finds the user who downloaded the songs maximum times of the current logged in user",
                "operationId": "playedMost",
                "produces": [
                    "application/json"
                ],
                "parameters": [],
                "responses": {
                    "200": {
                        "description": "Finds the user who downloaded the songs maximum times of the current logged in user",
                        "schema": {
                            "type": "array",
                            "items": {
                                "$ref": "#/definitions/User"
                            }
                        }
                    },
                    "404": {
                        "description": "Could not find the users"
                    }
                },
                "security": [
                    {
                        "type": "apiKey",
                        "name": "Authorization",
                        "in": "header",
                        "description": "You have to provide token received while logging in the Authorization header Like Authorization : Bearer 'Your Access Token'"
                    }
                ]
            }
        },
        "/updateGeneralSettings/": {
            "post": {
                "tags": [
                    "Users"
                ],
                "summary": "Updates the general settings of the current logged in user",
                "description": "Updates the general settings of the current logged in user",
                "operationId": "updateGeneralSettings",
                "produces": [
                    "application/json"
                ],
                "parameters": [
                    {
                        "name": "firstName",
                        "in": "body",
                        "description": "Provide the first name of the user",
                        "required": true,
                        "type": "string",
                        "maxLength": 256
                    },
                    {
                        "name": "lastName",
                        "in": "body",
                        "description": "Provide the last name of the user",
                        "required": true,
                        "type": "string",
                        "maxLength": 256
                    },
                    {
                        "name": "country",
                        "in": "body",
                        "description": "Provide the country of the user",
                        "required": true,
                        "type": "string",
                        "maxLength": 256
                    },
                    {
                        "name": "city",
                        "in": "body",
                        "description": "Provide the city of the user",
                        "required": true,
                        "type": "string",
                        "maxLength": 256
                    },
                    {
                        "name": "website",
                        "in": "body",
                        "description": "Provide the website of the user",
                        "required": true,
                        "type": "string",
                        "maxLength": 256
                    },
                    {
                        "name": "description",
                        "in": "body",
                        "description": "Provide the description about the user",
                        "required": true,
                        "type": "string",
                        "maxLength": 256
                    },
                    {
                        "name": "chatStatus",
                        "in": "body",
                        "description": "Provide the chat availability of the user. 0 for always offline and 1 for always online",
                        "required": true,
                        "type": "integer",
                        "maxLength": 256
                    },
                    {
                        "name": "profile",
                        "in": "body",
                        "description": "Provide the visibility of the user 0 for public and 1 for the private",
                        "required": true,
                        "type": "integer",
                        "maxLength": 256
                    }
                ],
                "responses": {
                    "200": {
                        "description": "Updated User profile",
                        "schema": {
                            "type": "array",
                            "items": {
                                "$ref": "#/definitions/User"
                            }
                        }
                    },
                    "404": {
                        "description": "Could not update the profile"
                    }
                },
                "security": [
                    {
                        "type": "apiKey",
                        "name": "Authorization",
                        "in": "header",
                        "description": "You have to provide token received while logging in the Authorization header Like Authorization : Bearer 'Your Access Token'"
                    }
                ]
            }
        },
        "/updateNotificationSettings/": {
            "post": {
                "tags": [
                    "Users"
                ],
                "summary": "Updates the notification settings of the current logged in user",
                "description": "Updates the notification settings of the current logged in user",
                "operationId": "updateNotificationSettings",
                "produces": [
                    "application/json"
                ],
                "parameters": [
                    {
                        "name": "likesNotification",
                        "in": "body",
                        "description": "Enable the likes notification of the user 0 for disable and 1 for the enable",
                        "required": true,
                        "type": "integer",
                        "maxLength": 256
                    },
                    {
                        "name": "chatsNotification",
                        "in": "body",
                        "description": "Enable the chats notification of the user 0 for disable and 1 for the enable",
                        "required": true,
                        "type": "integer",
                        "maxLength": 256
                    },
                    {
                        "name": "commentsNotification",
                        "in": "body",
                        "description": "Enable the comments notification of the user 0 for disable and 1 for the enable",
                        "required": true,
                        "type": "integer",
                        "maxLength": 256
                    },
                    {
                        "name": "friendsNotification",
                        "in": "body",
                        "description": "Enable the friends notification of the user 0 for disable and 1 for the enable",
                        "required": true,
                        "type": "integer",
                        "maxLength": 256
                    },
                    {
                        "name": "emailOnCommentsNotification",
                        "in": "body",
                        "description": "Enable the email on comment notification of the user 0 for disable and 1 for the enable",
                        "required": true,
                        "type": "integer",
                        "maxLength": 256
                    },
                    {
                        "name": "emailOnLikesNotification",
                        "in": "body",
                        "description": "Enable the email on like notification of the user 0 for disable and 1 for the enable",
                        "required": true,
                        "type": "integer",
                        "maxLength": 256
                    },
                    {
                        "name": "emailOnNewFriendsNotification",
                        "in": "body",
                        "description": "Enable the email on new friends notification of the user 0 for disable and 1 for the enable",
                        "required": true,
                        "type": "integer",
                        "maxLength": 256
                    }
                ],
                "responses": {
                    "200": {
                        "description": "Updated User profile",
                        "schema": {
                            "type": "array",
                            "items": {
                                "$ref": "#/definitions/User"
                            }
                        }
                    },
                    "404": {
                        "description": "Could not update the profile"
                    }
                },
                "security": [
                    {
                        "type": "apiKey",
                        "name": "Authorization",
                        "in": "header",
                        "description": "You have to provide token received while logging in the Authorization header Like Authorization : Bearer 'Your Access Token'"
                    }
                ]
            }
        },
        "/updateSocialProfileSettings/": {
            "post": {
                "tags": [
                    "Users"
                ],
                "summary": "Updates the social profile settings of the current logged in user",
                "description": "Updates the social profile settings of the current logged in user",
                "operationId": "updateSocialProfileSettings",
                "produces": [
                    "application/json"
                ],
                "parameters": [
                    {
                        "name": "facebook",
                        "in": "body",
                        "description": "Provide the facebook link of the user",
                        "required": true,
                        "type": "string",
                        "maxLength": 256
                    },
                    {
                        "name": "gplus",
                        "in": "body",
                        "description": "Provide the gplus link of the user",
                        "required": true,
                        "type": "string",
                        "maxLength": 256
                    },
                    {
                        "name": "twitter",
                        "in": "body",
                        "description": "Provide the twitter link of the user",
                        "required": true,
                        "type": "string",
                        "maxLength": 256
                    },
                    {
                        "name": "lastfm",
                        "in": "body",
                        "description": "Provide the last fm link of the user",
                        "required": true,
                        "type": "string",
                        "maxLength": 256
                    },
                    {
                        "name": "soundcloud",
                        "in": "body",
                        "description": "Provide the sound cloud link of the user",
                        "required": true,
                        "type": "string",
                        "maxLength": 256
                    },
                    {
                        "name": "vimeo",
                        "in": "body",
                        "description": "Provide the vimeo link of the user",
                        "required": true,
                        "type": "string",
                        "maxLength": 256
                    }
                ],
                "responses": {
                    "200": {
                        "description": "Updated User profile",
                        "schema": {
                            "type": "array",
                            "items": {
                                "$ref": "#/definitions/User"
                            }
                        }
                    },
                    "404": {
                        "description": "Could not update the profile"
                    }
                },
                "security": [
                    {
                        "type": "apiKey",
                        "name": "Authorization",
                        "in": "header",
                        "description": "You have to provide token received while logging in the Authorization header Like Authorization : Bearer 'Your Access Token'"
                    }
                ]
            }
        },
        "/updatePassword": {
            "post": {
                "tags": [
                    "Users"
                ],
                "summary": "Update the password",
                "description": "Update the password",
                "operationId": "updatePassword",
                "produces": [
                    "application/json"
                ],
                "parameters": [
                    {
                        "name": "password",
                        "in": "body",
                        "description": "Provide the new password of the user",
                        "required": true,
                        "type": "string",
                        "maxLength": 256
                    }
                ],
                "responses": {
                    "200": {
                        "description": "Password updated successfully",
                        "schema": {
                            "type": "array",
                            "items": {
                                "$ref": "#/definitions/User"
                            }
                        }
                    },
                    "404": {
                        "description": "Could not update the password"
                    }
                },
                "security": [
                    {
                        "type": "apiKey",
                        "name": "Authorization",
                        "in": "header",
                        "description": "You have to provide token received while logging in the Authorization header Like Authorization : Bearer 'Your Access Token'"
                    }
                ]
            }
        },
        "/updateProfilePicture": {
            "post": {
                "tags": [
                    "Users"
                ],
                "summary": "Update the profile picture of the user",
                "description": "Update the profile picture of the user",
                "operationId": "updateProfilePicture",
                "produces": [
                    "application/json"
                ],
                "parameters": [
                    {
                        "name": "profile",
                        "in": "body",
                        "description": "Provide the new profile picture of the user",
                        "required": false,
                        "type": "file",
                        "maxLength": 256
                    }
                ],
                "responses": {
                    "200": {
                        "description": "Profile picture updated successfully",
                        "schema": {
                            "type": "array",
                            "items": {
                                "$ref": "#/definitions/User"
                            }
                        }
                    },
                    "404": {
                        "description": "Could not update the profile picture of the user"
                    }
                },
                "security": [
                    {
                        "type": "apiKey",
                        "name": "Authorization",
                        "in": "header",
                        "description": "You have to provide token received while logging in the Authorization header Like Authorization : Bearer 'Your Access Token'"
                    }
                ]
            }
        },
        "/updateCoverPicture": {
            "post": {
                "tags": [
                    "Users"
                ],
                "summary": "Update the cover picture of the user",
                "description": "Update the cover picture of the user",
                "operationId": "updateCoverPicture",
                "produces": [
                    "application/json"
                ],
                "parameters": [
                    {
                        "name": "cover",
                        "in": "body",
                        "description": "Provide the new cover picture of the user",
                        "required": false,
                        "type": "file",
                        "maxLength": 256
                    }
                ],
                "responses": {
                    "200": {
                        "description": "Cover picture updated successfully",
                        "schema": {
                            "type": "array",
                            "items": {
                                "$ref": "#/definitions/User"
                            }
                        }
                    },
                    "404": {
                        "description": "Could not update the cover picture of the user"
                    }
                },
                "security": [
                    {
                        "type": "apiKey",
                        "name": "Authorization",
                        "in": "header",
                        "description": "You have to provide token received while logging in the Authorization header Like Authorization : Bearer 'Your Access Token'"
                    }
                ]
            }
        },
        "/friends/": {
            "get": {
                "tags": [
                    "Users"
                ],
                "summary": "Finds the friends of the current logged in user",
                "description": "Finds the friends of the current logged in user",
                "operationId": "friends",
                "produces": [
                    "application/json"
                ],
                "parameters": [],
                "responses": {
                    "200": {
                        "description": "Finds the friends of the current logged in user",
                        "schema": {
                            "type": "array",
                            "items": {
                                "$ref": "#/definitions/User"
                            }
                        }
                    },
                    "404": {
                        "description": "Could not the friends"
                    }
                }
            }
        },
        "/sendMessage/": {
            "post": {
                "tags": [
                    "Users"
                ],
                "summary": "Sends a message to a friend of the current logged in user",
                "description": "Sends a message to a friend of the current logged in user",
                "operationId": "sendMessage",
                "produces": [
                    "application/json"
                ],
                "parameters": [
                    {
                        "name": "message",
                        "in": "body",
                        "description": "Provide the message to send",
                        "required": true,
                        "type": "string",
                        "maxLength": 256
                    },
                    {
                        "name": "receiverId",
                        "in": "body",
                        "description": "Provide the id of the receiver",
                        "required": true,
                        "type": "string",
                        "maxLength": 256
                    }
                ],
                "responses": {
                    "200": {
                        "description": "Message sent successfully"
                    },
                    "404": {
                        "description": "Could not the send the message"
                    }
                }
            }
        },
        "/block/": {
            "post": {
                "tags": [
                    "Users"
                ],
                "summary": "Blocks a friend of the current logged in user",
                "description": "Blocks a friend of the current logged in user",
                "operationId": "block",
                "produces": [
                    "application/json"
                ],
                "parameters": [
                    {
                        "name": "targetUser",
                        "in": "body",
                        "description": "Provide the id of the target user to be blocked",
                        "required": true,
                        "type": "integer",
                        "maxLength": 256
                    }
                ],
                "responses": {
                    "200": {
                        "description": "User blocked successfully"
                    },
                    "404": {
                        "description": "Could not block the user"
                    }
                },
                "security": [
                    {
                        "type": "apiKey",
                        "name": "Authorization",
                        "in": "header",
                        "description": "You have to provide token received while logging in the Authorization header Like Authorization : Bearer 'Your Access Token'"
                    }
                ]
            }
        },
        "/unblock/": {
            "post": {
                "tags": [
                    "Users"
                ],
                "summary": "UnBlocks a friend of the current logged in user",
                "description": "UnBlocks a friend of the current logged in user",
                "operationId": "unblock",
                "produces": [
                    "application/json"
                ],
                "parameters": [
                    {
                        "name": "targetUser",
                        "in": "body",
                        "description": "Provide the id of the target user to be blocked",
                        "required": true,
                        "type": "integer",
                        "maxLength": 256
                    }
                ],
                "responses": {
                    "200": {
                        "description": "User unblocked successfully"
                    },
                    "404": {
                        "description": "Error unblocking the user"
                    }
                }
            }
        },
        "/chat/": {
            "get": {
                "tags": [
                    "Users"
                ],
                "summary": "Retrieves the chat with a target user current logged in user",
                "description": "Retrieves the chat with a target user current logged in user",
                "operationId": "chat",
                "produces": [
                    "application/json"
                ],
                "parameters": [
                    {
                        "name": "targetUser",
                        "in": "body",
                        "description": "Provide the id of the receiver",
                        "required": true,
                        "type": "string",
                        "maxLength": 256
                    }
                ],
                "responses": {
                    "200": {
                        "description": "Chat retrieved successfully",
                        "schema": {
                            "type": "array",
                            "items": {
                                "$ref": "#/definitions/Chat"
                            }
                        }
                    },
                    "404": {
                        "description": "Could not the retrieve the chats"
                    }
                },
                "security": [
                    {
                        "type": "apiKey",
                        "name": "Authorization",
                        "in": "header",
                        "description": "You have to provide token received while logging in the Authorization header Like Authorization : Bearer 'Your Access Token'"
                    }
                ]
            }
        },
        "/notifications/": {
            "get": {
                "tags": [
                    "Users"
                ],
                "summary": "Retrieves the notifications current logged in user",
                "description": "Retrieves the notifications current logged in user",
                "operationId": "getNotifications",
                "produces": [
                    "application/json"
                ],
                "parameters": [],
                "responses": {
                    "200": {
                        "description": "Notifications retrieved successfully",
                        "schema": {
                            "type": "array",
                            "items": {
                                "$ref": "#/definitions/Notification"
                            }
                        }
                    },
                    "404": {
                        "description": "Could not the retrieve the notifications"
                    }
                },
                "security": [
                    {
                        "type": "apiKey",
                        "name": "Authorization",
                        "in": "header",
                        "description": "You have to provide token received while logging in the Authorization header Like Authorization : Bearer 'Your Access Token'"
                    }
                ]
            }
        },
        "/register/": {
            "post": {
                "tags": [
                    "Users"
                ],
                "summary": "Registers a new user",
                "description": "Registers a new user",
                "operationId": "registerUser",
                "produces": [
                    "application/json"
                ],
                "parameters": [
                    {
                        "name": "username",
                        "in": "body",
                        "description": "Provide the username of the user",
                        "required": true,
                        "type": "string",
                        "maxLength": 256
                    },
                    {
                        "name": "password",
                        "in": "body",
                        "description": "Provide the password of the user",
                        "required": true,
                        "type": "string",
                        "maxLength": 256
                    },
                    {
                        "name": "email",
                        "in": "body",
                        "description": "Provide the email of the user",
                        "required": true,
                        "type": "string",
                        "maxLength": 256
                    },
                    {
                        "name": "apiKey",
                        "in": "body",
                        "description": "Provide the valid API KEY to access the api",
                        "required": true,
                        "type": "string",
                        "maxLength": 256
                    }
                ],
                "responses": {
                    "200": {
                        "description": "User registered successfully",
                        "schema": {
                            "type": "array",
                            "items": {
                                "$ref": "#/definitions/User"
                            }
                        }
                    },
                    "404": {
                        "description": "Error registering the user"
                    }
                },
                "security": [
                    {
                        "type": "apiKey",
                        "name": "Authorization",
                        "in": "header",
                        "description": "You have to provide token received while logging in the Authorization header Like Authorization : Bearer 'Your Access Token'"
                    }
                ]
            }
        },
        "/playlists/": {
            "get": {
                "tags": [
                    "Users"
                ],
                "summary": "Retrieves the playlists of the current logged in user",
                "description": "Retrieves the playlists of the current logged in user",
                "operationId": "getPlaylists",
                "produces": [
                    "application/json"
                ],
                "parameters": [],
                "responses": {
                    "200": {
                        "description": "Playlists retrieved successfully",
                        "schema": {
                            "type": "array",
                            "items": {
                                "$ref": "#/definitions/Playlist"
                            }
                        }
                    },
                    "404": {
                        "description": "Could not the retrieve the playlists"
                    }
                },
                "security": [
                    {
                        "type": "apiKey",
                        "name": "Authorization",
                        "in": "header",
                        "description": "You have to provide token received while logging in the Authorization header Like Authorization : Bearer 'Your Access Token'"
                    }
                ]
            },
            "post": {
                "tags": [
                    "Users"
                ],
                "summary": "Add a new playlist",
                "description": "Add a new playlist",
                "operationId": "addPlaylist",
                "produces": [
                    "application/json"
                ],
                "parameters": [
                    {
                        "name": "name",
                        "in": "body",
                        "description": "Provide the name of the playlist",
                        "required": true,
                        "type": "string",
                        "maxLength": 256
                    },
                    {
                        "name": "description",
                        "in": "body",
                        "description": "Provide the description for the playlist",
                        "required": true,
                        "type": "string",
                        "maxLength": 256
                    }
                ],
                "responses": {
                    "200": {
                        "description": "Playlist added successfully",
                        "schema": {
                            "type": "array",
                            "items": {
                                "$ref": "#/definitions/Playlist"
                            }
                        }
                    },
                    "404": {
                        "description": "Error adding the playlist"
                    }
                },
                "security": [
                    {
                        "type": "apiKey",
                        "name": "Authorization",
                        "in": "header",
                        "description": "You have to provide token received while logging in the Authorization header Like Authorization : Bearer 'Your Access Token'"
                    }
                ]
            }
        },
        "/playlists/edit": {
            "post": {
                "tags": [
                    "Users"
                ],
                "summary": "Edits a new playlist",
                "description": "Edits a playlist",
                "operationId": "editPlaylist",
                "produces": [
                    "application/json"
                ],
                "parameters": [
                    {
                        "name": "name",
                        "in": "body",
                        "description": "Provide the new name of the playlist",
                        "required": false,
                        "type": "string",
                        "maxLength": 256
                    },
                    {
                        "name": "playlistId",
                        "in": "body",
                        "description": "Provide the id of the playlist",
                        "required": true,
                        "type": "integer",
                        "maxLength": 256
                    },
                    {
                        "name": "description",
                        "in": "body",
                        "description": "Provide the new description for the playlist",
                        "required": false,
                        "type": "string",
                        "maxLength": 256
                    }
                ],
                "responses": {
                    "200": {
                        "description": "Playlist updated successfully",
                        "schema": {
                            "type": "array",
                            "items": {
                                "$ref": "#/definitions/Playlist"
                            }
                        }
                    },
                    "404": {
                        "description": "Error updating the playlist"
                    }
                },
                "security": [
                    {
                        "type": "apiKey",
                        "name": "Authorization",
                        "in": "header",
                        "description": "You have to provide token received while logging in the Authorization header Like Authorization : Bearer 'Your Access Token'"
                    }
                ]
            }
        },
        "/playlists/addTrack": {
            "post": {
                "tags": [
                    "Users"
                ],
                "summary": "Adds a new song to the playlist",
                "description": "Adds a new song to the playlist",
                "operationId": "addTrackToPlaylist",
                "produces": [
                    "application/json"
                ],
                "parameters": [
                    {
                        "name": "playlistId",
                        "in": "body",
                        "description": "Provide the id of the playlist",
                        "required": true,
                        "type": "integer",
                        "maxLength": 256
                    },
                    {
                        "name": "trackId",
                        "in": "body",
                        "description": "Provide the id of the track",
                        "required": true,
                        "type": "integer",
                        "maxLength": 256
                    }
                ],
                "responses": {
                    "200": {
                        "description": "Playlist updated successfully",
                        "schema": {
                            "type": "array",
                            "items": {
                                "$ref": "#/definitions/Playlist"
                            }
                        }
                    },
                    "404": {
                        "description": "Error updating the playlist"
                    }
                },
                "security": [
                    {
                        "type": "apiKey",
                        "name": "Authorization",
                        "in": "header",
                        "description": "You have to provide token received while logging in the Authorization header Like Authorization : Bearer 'Your Access Token'"
                    }
                ]
            }
        },
        "/playlists/removeTrack": {
            "post": {
                "tags": [
                    "Users"
                ],
                "summary": "Removes a song from the playlist",
                "description": "Removes a song from the playlist",
                "operationId": "removTrackFromPlaylist",
                "produces": [
                    "application/json"
                ],
                "parameters": [
                    {
                        "name": "playlistId",
                        "in": "body",
                        "description": "Provide the id of the playlist",
                        "required": true,
                        "type": "integer",
                        "maxLength": 256
                    },
                    {
                        "name": "trackId",
                        "in": "body",
                        "description": "Provide the id of the track",
                        "required": true,
                        "type": "integer",
                        "maxLength": 256
                    }
                ],
                "responses": {
                    "200": {
                        "description": "Playlist updated successfully",
                        "schema": {
                            "type": "array",
                            "items": {
                                "$ref": "#/definitions/Playlist"
                            }
                        }
                    },
                    "404": {
                        "description": "Error updating the playlist"
                    }
                },
                "security": [
                    {
                        "type": "apiKey",
                        "name": "Authorization",
                        "in": "header",
                        "description": "You have to provide token received while logging in the Authorization header Like Authorization : Bearer 'Your Access Token'"
                    }
                ]
            }
        },
        "/playlists/tracks": {
            "get": {
                "tags": [
                    "Users"
                ],
                "summary": "Gets all songs of the playlist",
                "description": "Gets all songs of the playlist",
                "operationId": "getTracksOfThePlaylist",
                "produces": [
                    "application/json"
                ],
                "parameters": [
                    {
                        "name": "playlistId",
                        "in": "body",
                        "description": "Provide the id of the playlist",
                        "required": true,
                        "type": "integer",
                        "maxLength": 256
                    }
                ],
                "responses": {
                    "200": {
                        "schema": {
                            "type": "array",
                            "items": {
                                "$ref": "#/definitions/Track"
                            }
                        }
                    },
                    "404": {
                        "description": "Error getting the tracks"
                    }
                },
                "security": [
                    {
                        "type": "apiKey",
                        "name": "Authorization",
                        "in": "header",
                        "description": "You have to provide token received while logging in the Authorization header Like Authorization : Bearer 'Your Access Token'"
                    }
                ]
            }
        },
        "/search/users": {
            "get": {
                "tags": [
                    "Users"
                ],
                "summary": "Finds all the related users",
                "description": "Finds all the related users",
                "operationId": "searchUsers",
                "produces": [
                    "application/json"
                ],
                "parameters": [
                    {
                        "name": "query",
                        "in": "body",
                        "description": "Provide the query requried to search",
                        "required": true,
                        "type": "integer",
                        "maxLength": 256
                    }
                ],
                "responses": {
                    "200": {
                        "schema": {
                            "type": "array",
                            "items": {
                                "$ref": "#/definitions/User"
                            }
                        }
                    },
                    "404": {
                        "description": "Error getting the users"
                    }
                },
                "security": [
                    {
                        "type": "apiKey",
                        "name": "Authorization",
                        "in": "header",
                        "description": "You have to provide token received while logging in the Authorization header Like Authorization : Bearer 'Your Access Token'"
                    }
                ]
            }
        },
        "/search/tracks": {
            "get": {
                "tags": [
                    "Users"
                ],
                "summary": "Finds all the related tracks",
                "description": "Finds all the related tracks",
                "operationId": "searchUsers",
                "produces": [
                    "application/json"
                ],
                "parameters": [
                    {
                        "name": "query",
                        "in": "body",
                        "description": "Provide the query requried to search",
                        "required": true,
                        "type": "integer",
                        "maxLength": 256
                    }
                ],
                "responses": {
                    "200": {
                        "schema": {
                            "type": "array",
                            "items": {
                                "$ref": "#/definitions/Track"
                            }
                        }
                    },
                    "404": {
                        "description": "Error getting the tracks"
                    }
                },
                "security": [
                    {
                        "type": "apiKey",
                        "name": "Authorization",
                        "in": "header",
                        "description": "You have to provide token received while logging in the Authorization header Like Authorization : Bearer 'Your Access Token'"
                    }
                ]
            }
        },
        "/search/playlists": {
            "get": {
                "tags": [
                    "Users"
                ],
                "summary": "Finds all the related playlists",
                "description": "Finds all the related playlists",
                "operationId": "searchUsers",
                "produces": [
                    "application/json"
                ],
                "parameters": [
                    {
                        "name": "query",
                        "in": "body",
                        "description": "Provide the query required to search",
                        "required": true,
                        "type": "integer",
                        "maxLength": 256
                    }
                ],
                "responses": {
                    "200": {
                        "schema": {
                            "type": "array",
                            "items": {
                                "$ref": "#/definitions/Playlist"
                            }
                        }
                    },
                    "404": {
                        "description": "Error getting the playlists"
                    }
                },
                "security": [
                    {
                        "type": "apiKey",
                        "name": "Authorization",
                        "in": "header",
                        "description": "You have to provide token received while logging in the Authorization header Like Authorization : Bearer 'Your Access Token'"
                    }
                ]
            }
        },
        "/resetPassword/": {
            "post": {
                "tags": [
                    "Users"
                ],
                "summary": "Provides the user token to reset the password",
                "description": "Provides the user token to reset the password",
                "operationId": "resetPassword",
                "produces": [
                    "application/json"
                ],
                "parameters": [
                    {
                        "name": "usernameOrEmail",
                        "in": "body",
                        "description": "Provide the username or the email of the user",
                        "required": true,
                        "type": "string",
                        "maxLength": 256
                    }
                ],
                "responses": {
                    "200": {
                        "description": "Password reset request sent successfully"
                    }
                }
            }
        },
        "/resetPasswordProcess/": {
            "post": {
                "tags": [
                    "Users"
                ],
                "summary": "Provides the user to reset the password who have the reset code",
                "description": "Provides the user to reset the password who have the reset code",
                "operationId": "registerUserProcess",
                "produces": [
                    "application/json"
                ],
                "parameters": [
                    {
                        "name": "username",
                        "in": "body",
                        "description": "Provide the username of the user",
                        "required": true,
                        "type": "string",
                        "maxLength": 256
                    },
                    {
                        "name": "resetKey",
                        "in": "body",
                        "description": "Provide the reset key received in the email",
                        "required": true,
                        "type": "string",
                        "maxLength": 256
                    },
                    {
                        "name": "password",
                        "in": "body",
                        "description": "Provide the new password",
                        "required": true,
                        "type": "string",
                        "maxLength": 256
                    }
                ],
                "responses": {
                    "200": {
                        "description": "Password updated successfully"
                    },
                    "404": {
                        "description": "Password could not be updated"
                    }
                },
                "security": [
                    {
                        "type": "apiKey",
                        "name": "Authorization",
                        "in": "header",
                        "description": "You have to provide token received while logging in the Authorization header Like Authorization : Bearer 'Your Access Token'"
                    }
                ]
            }
        }
    },
    "definitions": {
        "Chat": {
            "required": [
                "name"
            ],
            "properties": {
                "id": {
                    "required": true,
                    "type": "string"
                },
                "from": {
                    "required": true,
                    "type": "integer"
                },
                "to": {
                    "required": true,
                    "type": "integer"
                },
                "message": {
                    "required": true,
                    "type": "integer"
                },
                "read": {
                    "required": true,
                    "type": "integer"
                },
                "time": {
                    "required": true,
                    "type": "date-time"
                }
            }
        },
        "Like": {
            "required": [
                "trackId"
            ],
            "properties": {
                "id": {
                    "required": true,
                    "type": "string"
                },
                "track": {
                    "required": true,
                    "type": "integer"
                },
                "by": {
                    "required": true,
                    "type": "integer"
                },
                "time": {
                    "required": true,
                    "type": "string",
                    "format": "date-time"
                }
            }
        },
        "Notification": {
            "required": [
                "name"
            ],
            "properties": {
                "id": {
                    "required": true,
                    "type": "string"
                },
                "from": {
                    "required": true,
                    "type": "integer"
                },
                "to": {
                    "required": true,
                    "type": "integer"
                },
                "parent": {
                    "required": true,
                    "type": "integer"
                },
                "child": {
                    "required": true,
                    "type": "integer"
                },
                "type": {
                    "required": true,
                    "type": "integer"
                },
                "read": {
                    "required": true,
                    "type": "integer"
                },
                "time": {
                    "required": true,
                    "type": "date-time"
                }
            }
        },
        "Playlist": {
            "required": [
                "name"
            ],
            "properties": {
                "uid": {
                    "required": true,
                    "type": "integer"
                },
                "by": {
                    "required": true,
                    "type": "integer"
                },
                "name": {
                    "required": true,
                    "type": "string"
                },
                "description": {
                    "required": true,
                    "type": "string"
                },
                "public": {
                    "required": true,
                    "type": "integer"
                },
                "time": {
                    "required": true,
                    "type": "date-time"
                }
            }
        },
        "Track": {
            "required": [
                "name"
            ],
            "properties": {
                "id": {
                    "required": true,
                    "type": "string"
                },
                "uid": {
                    "required": true,
                    "type": "integer"
                },
                "title": {
                    "required": true,
                    "type": "string"
                },
                "description": {
                    "required": true,
                    "type": "string"
                },
                "name": {
                    "required": true,
                    "type": "string"
                },
                "tag": {
                    "required": true,
                    "type": "string"
                },
                "art": {
                    "required": true,
                    "type": "string"
                },
                "buy": {
                    "required": true,
                    "type": "string"
                },
                "record": {
                    "required": true,
                    "type": "string"
                },
                "release": {
                    "required": true,
                    "type": "string",
                    "format": "date"
                },
                "license": {
                    "required": true,
                    "type": "integer"
                },
                "size": {
                    "required": true,
                    "type": "integer"
                },
                "download": {
                    "required": true,
                    "type": "integer"
                },
                "time": {
                    "required": true,
                    "type": "string",
                    "format": "date-time"
                },
                "public": {
                    "required": true,
                    "type": "integer"
                },
                "likes": {
                    "required": true,
                    "type": "integer"
                },
                "downloads": {
                    "required": true,
                    "type": "integer"
                },
                "views": {
                    "required": true,
                    "type": "integer"
                },
                "embed": {
                    "required": true,
                    "type": "string"
                },
                "ratings": {
                    "required": true,
                    "type": "integer"
                },
                "trackDownoadLink": {
                    "required": false,
                    "type": "string"
                },
                "trackArtLink": {
                    "required": false,
                    "type": "string"
                }
            }
        },
        "User": {
            "required": [
                "name"
            ],
            "properties": {
                "uid": {
                    "required": true,
                    "type": "integer"
                },
                "username": {
                    "required": true,
                    "type": "string"
                },
                "password": {
                    "required": true,
                    "type": "string"
                },
                "email": {
                    "required": true,
                    "type": "string"
                },
                "first_name": {
                    "required": true,
                    "type": "string"
                },
                "last_name": {
                    "required": true,
                    "type": "string"
                },
                "country": {
                    "required": true,
                    "type": "string"
                },
                "city": {
                    "required": true,
                    "type": "string"
                },
                "website": {
                    "required": true,
                    "type": "string"
                },
                "description": {
                    "required": true,
                    "type": "string"
                },
                "date": {
                    "required": true,
                    "type": "date"
                },
                "facebook": {
                    "required": true,
                    "type": "string"
                },
                "twitter": {
                    "required": true,
                    "type": "string"
                },
                "gplus": {
                    "required": true,
                    "type": "string"
                },
                "youtube": {
                    "required": true,
                    "type": "string"
                },
                "vimeo": {
                    "required": true,
                    "type": "string"
                },
                "tumblr": {
                    "required": true,
                    "type": "string"
                },
                "soundcloud": {
                    "required": true,
                    "type": "string"
                },
                "myspace": {
                    "required": true,
                    "type": "string"
                },
                "lastfm": {
                    "required": true,
                    "type": "string"
                },
                "image": {
                    "required": true,
                    "type": "string"
                },
                "private": {
                    "required": true,
                    "type": "integer"
                },
                "suspended": {
                    "required": true,
                    "type": "integer"
                },
                "salted": {
                    "required": true,
                    "type": "string"
                },
                "cover": {
                    "required": true,
                    "type": "string"
                },
                "gender": {
                    "required": true,
                    "type": "intger"
                },
                "online": {
                    "required": true,
                    "type": "int"
                },
                "ip": {
                    "required": true,
                    "type": "string"
                },
                "notificationl": {
                    "required": true,
                    "type": "integer"
                },
                "notificationc": {
                    "required": true,
                    "type": "integer"
                },
                "notificationd": {
                    "required": true,
                    "type": "integer"
                },
                "notificationf": {
                    "required": true,
                    "type": "integer"
                },
                "email_comment": {
                    "required": true,
                    "type": "integer"
                },
                "email_new_friend": {
                    "required": true,
                    "type": "integer"
                },
                "vip": {
                    "required": true,
                    "type": "integer"
                },
                "remember_token": {
                    "required": true,
                    "type": "string"
                },
                "hasProProfile": {
                    "required": true,
                    "type": "boolean"
                }
            }
        }
    },
    "securityDefinitions": {
        "bearer": {
            "type": "apiKey",
            "description": "You have to provide token received while logging in the Authorization header",
            "name": "JWT Access Token based Authentication ",
            "in": "header"
        }
    },
    "tags": [
        {
            "name": "tracks",
            "description": "Everything related to the tracks",
            "externalDocs": {
                "description": "Contact the developer",
                "url": "http://shashankgaurav.com"
            }
        },
        {
            "name": "Users",
            "description": "Everything related to the users",
            "externalDocs": {
                "description": "Contact the developer",
                "url": "http://shashankgaurav.com"
            }
        },
        {
            "name": "payments",
            "description": "Everything related to the payments",
            "externalDocs": {
                "description": "Contact the developer",
                "url": "http://shashankgaurav.com"
            }
        }
    ],
    "externalDocs": {
        "description": "To find more about the website contact the developer",
        "url": "http://shashankgaurav.com"
    },
    "version": 1
}